<svg width="38" height="48" viewBox="0 0 38 48" fill="none" xmlns="http://www.w3.org/2000/svg">
<path d="M19 0C8.73757 0 0.385559 8.35201 0.385559 18.6144C0.385559 28.6272 17.5696 46.9248 18.2992 47.6928C18.4816 47.8848 18.7408 48 19 48C19.2592 48 19.5184 47.8848 19.7008 47.6928C20.4304 46.9248 37.6144 28.6272 37.6144 18.6144C37.6144 8.35201 29.2624 0 19 0ZM19 26.5359C14.627 26.5359 11.0692 22.9823 11.0692 18.6145C11.0692 14.2416 14.627 10.6838 19 10.6838C23.3734 10.6838 26.9312 14.2416 26.9312 18.6145C26.9312 22.9823 23.3734 26.5359 19 26.5359Z" fill="#2F4E4D"/>
</svg>
